{
  "hosting": {
    "public": "build",
    "rewrites": [
      {
        "source": "**",
        "destination": "/index.html"
      }
    ],
    "headers": [
        {"source" : "**/*.@(eot|otf|ttf|ttc|woff|font.css)",
        "headers" : [
            {"key" : "Access-Control-Allow-Origin",
            "value" : "*"}]
        },
        {"source" : "**/*.@(jpg|jpeg|gif|png|svg|css|js)",
        "headers" : [
            {"key" : "Cache-Control",
            "value" : "max-age=30672000"
            }]
        },
        {"source" : "404.html",
        "headers" : [
            {"key" : "Cache-Control",
            "value" : "max-age=300"
            }]
        }
      ],
      "ignore": [
        "firebase.json",
        "**/.*",
        "**/node_modules/**"
      ],
      "trailingSlash": false
  }
}
